code/pipeline cpu/build/water_cpu.vcd
$date
	Tue Jul  8 10:45:15 2025
$end
$version
	Icarus Verilog
$end
$timescale
	1ps
$end
$scope module sccomp_tb $end
$var parameter 32 ! stop_instr $end
$var parameter 64 " stop_pc $end
$var reg 1 # clk $end
$var reg 5 $ reg_sel [4:0] $end
$var reg 1 % rstn $end
$var integer 32 & counter [31:0] $end
$var integer 32 ' foutput [31:0] $end
$scope module U_SCCOMP $end
$var wire 1 # clk $end
$var wire 32 ( reg_data [31:0] $end
$var wire 5 ) reg_sel [4:0] $end
$var wire 1 * rst $end
$var wire 1 % rstn $end
$var wire 32 + instr [31:0] $end
$var wire 32 , dm_dout [31:0] $end
$var wire 32 - dm_din [31:0] $end
$var wire 32 . dm_addr [31:0] $end
$var wire 32 / PC [31:0] $end
$var wire 1 0 MemWrite $end
$scope module U_DM $end
$var wire 7 1 addr [8:2] $end
$var wire 1 # clk $end
$var wire 32 2 dout [31:0] $end
$var wire 32 3 din [31:0] $end
$var wire 1 0 DMWr $end
$upscope $end
$scope module U_IM $end
$var wire 10 4 addr [11:2] $end
$var wire 32 5 dout [31:0] $end
$upscope $end
$scope module U_SCPU $end
$var wire 32 6 Addr_out [31:0] $end
$var wire 1 7 CPU_MIO $end
$var wire 3 8 DMType [2:0] $end
$var wire 32 9 Data_in [31:0] $end
$var wire 32 : Data_out [31:0] $end
$var wire 1 ; EX_MEM_write_enable $end
$var wire 2 < GPRSel [1:0] $end
$var wire 1 = ID_EX_flush $end
$var wire 1 > ID_EX_write_enable $end
$var wire 1 ? IF_ID_write_enable $end
$var wire 1 @ INT $end
$var wire 1 A MEM_WB_write_enable $end
$var wire 1 B MIO_ready $end
$var wire 1 C Zero $end
$var wire 1 # clk $end
$var wire 32 D inst_in [31:0] $end
$var wire 1 0 mem_w $end
$var wire 1 * reset $end
$var wire 20 E uimm [19:0] $end
$var wire 1 F stall_signal $end
$var wire 12 G simm [11:0] $end
$var wire 5 H rs2_EX [4:0] $end
$var wire 5 I rs2 [4:0] $end
$var wire 5 J rs1_EX [4:0] $end
$var wire 5 K rs1 [4:0] $end
$var wire 5 L rd_WB [4:0] $end
$var wire 5 M rd_MEM [4:0] $end
$var wire 5 N rd_EX [4:0] $end
$var wire 5 O rd [4:0] $end
$var wire 20 P jimm [19:0] $end
$var wire 32 Q immout_EX [31:0] $end
$var wire 32 R immout [31:0] $end
$var wire 5 S iimm_shamt [4:0] $end
$var wire 12 T iimm [11:0] $end
$var wire 12 U bimm [11:0] $end
$var wire 32 V aluout_WB [31:0] $end
$var wire 32 W aluout_MEM [31:0] $end
$var wire 32 X aluout_EX [31:0] $end
$var wire 1 Y Zero_EX $end
$var wire 2 Z WDSel_WB [1:0] $end
$var wire 2 [ WDSel_MEM [1:0] $end
$var wire 2 \ WDSel_EX [1:0] $end
$var wire 2 ] WDSel [1:0] $end
$var wire 8 ^ SCAUSE_WB [7:0] $end
$var wire 8 _ SCAUSE_MEM [7:0] $end
$var wire 8 ` SCAUSE_ID [7:0] $end
$var wire 8 a SCAUSE_EX [7:0] $end
$var wire 1 b RegWrite_WB $end
$var wire 1 c RegWrite_MEM $end
$var wire 1 d RegWrite_EX $end
$var wire 1 e RegWrite $end
$var wire 32 f RD2_forwarded [31:0] $end
$var wire 32 g RD2_MEM [31:0] $end
$var wire 32 h RD2_EX [31:0] $end
$var wire 32 i RD2 [31:0] $end
$var wire 32 j RD1_forwarded [31:0] $end
$var wire 32 k RD1_EX [31:0] $end
$var wire 32 l RD1 [31:0] $end
$var wire 32 m PC_out [31:0] $end
$var wire 32 n PC_WB [31:0] $end
$var wire 32 o PC_MEM [31:0] $end
$var wire 32 p PC_EX [31:0] $end
$var wire 1 q PCWrite $end
$var wire 7 r Op [6:0] $end
$var wire 3 s NPCOp_EX [2:0] $end
$var wire 3 t NPCOp [2:0] $end
$var wire 32 u NPC [31:0] $end
$var wire 1 v MemWrite_MEM $end
$var wire 1 w MemWrite_EX $end
$var wire 1 x MemWrite $end
$var wire 1 y MRET_MEM $end
$var wire 1 z MRET_ID $end
$var wire 1 { MRET_EX $end
$var wire 116 | MEM_WB_out [115:0] $end
$var wire 116 } MEM_WB_in [115:0] $end
$var wire 1 ~ INT_Signal_MEM $end
$var wire 1 !" INT_Signal_ID $end
$var wire 1 "" INT_Signal_EX $end
$var wire 64 #" IF_ID_out [63:0] $end
$var wire 32 $" IF_ID_inst [31:0] $end
$var wire 64 %" IF_ID_in [63:0] $end
$var wire 1 &" IF_ID_flush $end
$var wire 32 '" IF_ID_PC [31:0] $end
$var wire 173 (" ID_EX_out [172:0] $end
$var wire 173 )" ID_EX_in [172:0] $end
$var wire 1 *" ID_EX_MemRead $end
$var wire 2 +" GPRSel_MEM [1:0] $end
$var wire 2 ," GPRSel_EX [1:0] $end
$var wire 7 -" Funct7 [6:0] $end
$var wire 3 ." Funct3 [2:0] $end
$var wire 2 /" ForwardB [1:0] $end
$var wire 2 0" ForwardA [1:0] $end
$var wire 123 1" EX_MEM_out [122:0] $end
$var wire 123 2" EX_MEM_in [122:0] $end
$var wire 6 3" EXTOp [5:0] $end
$var wire 32 4" Data_in_WB [31:0] $end
$var wire 3 5" DMType_MEM [2:0] $end
$var wire 3 6" DMType_ID [2:0] $end
$var wire 3 7" DMType_EX [2:0] $end
$var wire 1 8" CSRRS_MEM $end
$var wire 1 9" CSRRS_ID $end
$var wire 1 :" CSRRS_EX $end
$var wire 1 ;" Branch_or_Jump $end
$var wire 32 <" B_EX [31:0] $end
$var wire 1 =" ALUSrc_EX $end
$var wire 1 >" ALUSrc $end
$var wire 5 ?" ALUOp_EX [4:0] $end
$var wire 5 @" ALUOp [4:0] $end
$var reg 32 A" RF_WD [31:0] $end
$var reg 32 B" SEPC [31:0] $end
$scope module EX_MEM $end
$var wire 1 # Clk $end
$var wire 1 * Rst $end
$var wire 1 C" flush $end
$var wire 200 D" in [199:0] $end
$var wire 1 ; write_enable $end
$var parameter 32 E" WIDTH $end
$var reg 200 F" out [199:0] $end
$upscope $end
$scope module ID_EX $end
$var wire 1 # Clk $end
$var wire 1 * Rst $end
$var wire 1 = flush $end
$var wire 200 G" in [199:0] $end
$var wire 1 > write_enable $end
$var parameter 32 H" WIDTH $end
$var reg 200 I" out [199:0] $end
$upscope $end
$scope module IF_ID $end
$var wire 1 # Clk $end
$var wire 1 * Rst $end
$var wire 200 J" in [199:0] $end
$var wire 1 ? write_enable $end
$var wire 1 &" flush $end
$var parameter 32 K" WIDTH $end
$var reg 200 L" out [199:0] $end
$upscope $end
$scope module MEM_WB $end
$var wire 1 # Clk $end
$var wire 1 * Rst $end
$var wire 1 M" flush $end
$var wire 200 N" in [199:0] $end
$var wire 1 A write_enable $end
$var parameter 32 O" WIDTH $end
$var reg 200 P" out [199:0] $end
$upscope $end
$scope module u_EXT $end
$var wire 12 Q" bimm [11:0] $end
$var wire 12 R" iimm [11:0] $end
$var wire 5 S" iimm_shamt [4:0] $end
$var wire 20 T" jimm [19:0] $end
$var wire 12 U" simm [11:0] $end
$var wire 20 V" uimm [19:0] $end
$var wire 6 W" EXTOp [5:0] $end
$var reg 32 X" immout [31:0] $end
$upscope $end
$scope module u_NPC $end
$var wire 32 Y" IMM [31:0] $end
$var wire 1 { MRET $end
$var wire 3 Z" NPCOp [2:0] $end
$var wire 32 [" PC_EX [31:0] $end
$var wire 32 \" SEPC [31:0] $end
$var wire 32 ]" aluout [31:0] $end
$var wire 1 q PCWrite $end
$var wire 32 ^" PCPLUS4 [31:0] $end
$var wire 32 _" PC [31:0] $end
$var reg 32 `" NPC [31:0] $end
$upscope $end
$scope module u_PC $end
$var wire 32 a" NPC [31:0] $end
$var wire 1 # clk $end
$var wire 1 * rst $end
$var wire 1 b" stall $end
$var reg 32 c" PC [31:0] $end
$upscope $end
$scope module u_RF $end
$var wire 5 d" A1 [4:0] $end
$var wire 5 e" A2 [4:0] $end
$var wire 5 f" A3 [4:0] $end
$var wire 1 b RFWr $end
$var wire 32 g" WD [31:0] $end
$var wire 1 # clk $end
$var wire 1 * rst $end
$var wire 32 h" RD2 [31:0] $end
$var wire 32 i" RD1 [31:0] $end
$var integer 32 j" i [31:0] $end
$upscope $end
$scope module u_alu $end
$var wire 32 k" A [31:0] $end
$var wire 5 l" ALUOp [4:0] $end
$var wire 32 m" B [31:0] $end
$var wire 32 n" PC [31:0] $end
$var wire 1 Y Zero $end
$var reg 32 o" C [31:0] $end
$upscope $end
$scope module u_ctrl $end
$var wire 1 >" ALUSrc $end
$var wire 1 9" CSRRS $end
$var wire 3 p" Funct3 [2:0] $end
$var wire 7 q" Funct7 [6:0] $end
$var wire 2 r" GPRSel [1:0] $end
$var wire 1 !" INT_Signal $end
$var wire 1 z MRET $end
$var wire 1 x MemWrite $end
$var wire 7 s" Op [6:0] $end
$var wire 1 e RegWrite $end
$var wire 8 t" SCAUSE [7:0] $end
$var wire 1 C Zero $end
$var wire 1 u" i_add $end
$var wire 1 v" i_addi $end
$var wire 1 w" i_and $end
$var wire 1 x" i_andi $end
$var wire 1 y" i_auipc $end
$var wire 1 z" i_beq $end
$var wire 1 {" i_bge $end
$var wire 1 |" i_bgeu $end
$var wire 1 }" i_blt $end
$var wire 1 ~" i_bltu $end
$var wire 1 !# i_bne $end
$var wire 1 "# i_csrrs $end
$var wire 1 ## i_ecall $end
$var wire 1 $# i_jal $end
$var wire 1 %# i_jalr $end
$var wire 1 &# i_lb $end
$var wire 1 '# i_lbu $end
$var wire 1 (# i_lh $end
$var wire 1 )# i_lhu $end
$var wire 1 *# i_lui $end
$var wire 1 +# i_lw $end
$var wire 1 ,# i_mret $end
$var wire 1 -# i_nop $end
$var wire 1 .# i_or $end
$var wire 1 /# i_ori $end
$var wire 1 0# i_sb $end
$var wire 1 1# i_sh $end
$var wire 1 2# i_sll $end
$var wire 1 3# i_slli $end
$var wire 1 4# i_slt $end
$var wire 1 5# i_slti $end
$var wire 1 6# i_sltiu $end
$var wire 1 7# i_sltu $end
$var wire 1 8# i_sra $end
$var wire 1 9# i_srai $end
$var wire 1 :# i_srl $end
$var wire 1 ;# i_srli $end
$var wire 1 <# i_sub $end
$var wire 1 =# i_sw $end
$var wire 1 ># i_xor $end
$var wire 1 ?# i_xori $end
$var wire 1 @# illegal_instr $end
$var wire 32 A# instruction [31:0] $end
$var wire 1 B# itype_l $end
$var wire 1 C# itype_r $end
$var wire 1 D# rtype $end
$var wire 1 E# sbtype $end
$var wire 1 F# stype $end
$var wire 1 G# system_type $end
$var wire 2 H# WDSel [1:0] $end
$var wire 3 I# NPCOp [2:0] $end
$var wire 6 J# EXTOp [5:0] $end
$var wire 3 K# DMType [2:0] $end
$var wire 5 L# ALUOp [4:0] $end
$var parameter 8 M# ECALL_SCAUSE $end
$var parameter 8 N# ILLEGAL_INST_SCAUSE $end
$var parameter 8 O# INST_ADDR_MISALIGN $end
$var parameter 8 P# MRET_SCAUSE $end
$upscope $end
$scope module u_forward $end
$var wire 5 Q# EX_rs1 [4:0] $end
$var wire 5 R# EX_rs2 [4:0] $end
$var wire 1 S# MEM_Forward $end
$var wire 1 T# MEM_Forward2 $end
$var wire 1 c MEM_RegWrite $end
$var wire 5 U# MEM_rd [4:0] $end
$var wire 1 V# WB_Forward $end
$var wire 1 W# WB_Forward2 $end
$var wire 1 b WB_RegWrite $end
$var wire 5 X# WB_rd [4:0] $end
$var wire 2 Y# ForwardB [1:0] $end
$var wire 2 Z# ForwardA [1:0] $end
$upscope $end
$scope module u_hazard $end
$var wire 1 *" ID_EX_MemRead $end
$var wire 3 [# ID_EX_NPCOp [2:0] $end
$var wire 5 \# ID_EX_rd [4:0] $end
$var wire 5 ]# IF_ID_rs1 [4:0] $end
$var wire 5 ^# IF_ID_rs2 [4:0] $end
$var reg 1 &" IF_ID_flush $end
$var reg 1 q PCWrite $end
$var reg 1 F stall $end
$upscope $end
$upscope $end
$upscope $end
$upscope $end
$enddefinitions $end
$comment Show the parameter values. $end
$dumpall
b0 P#
b0 O#
b10 N#
b1000 M#
b11001000 O"
b11001000 K"
b11001000 H"
b11001000 E"
b1111101000000 "
b11111010000 !
$end
#0
$dumpvars
bx ^#
bx ]#
bx \#
bx [#
bx Z#
bx Y#
bx X#
xW#
xV#
bx U#
xT#
xS#
bx R#
bx Q#
bx L#
bx K#
bx J#
bx I#
bx H#
xG#
xF#
xE#
xD#
xC#
xB#
bx A#
0@#
x?#
x>#
x=#
x<#
x;#
x:#
x9#
x8#
x7#
x6#
x5#
x4#
x3#
x2#
x1#
x0#
x/#
x.#
x-#
x,#
x+#
x*#
x)#
x(#
x'#
x&#
x%#
x$#
x##
x"#
x!#
x~"
x}"
x|"
x{"
xz"
xy"
xx"
xw"
xv"
xu"
b0x000 t"
bx s"
bz r"
bx q"
bx p"
bx o"
bx n"
bx m"
bx l"
bx k"
bx j"
bx i"
bx h"
b0 g"
bx f"
bx e"
bx d"
bx c"
zb"
bx a"
bx `"
bx _"
bx ^"
bx ]"
bx \"
bx ["
bx Z"
bx Y"
bx X"
bx W"
bx V"
bx U"
bx T"
bx S"
bx R"
bx Q"
b0xxxxxxxxxxxxxxxxxxxxxxxxxxxxxxxxxxxxxxxxxxxxxxxxxxxxxxxxxxxxxxxxxxxxxxxxxxxxxxxxxxxxxxxxxxxxxxxxxxxxxxxx P"
b0xxxxxxxxxxxxxxxxxxxxxxxxxxxxxxxxxxxxxxxxxxxxxxxxxxxxxxxxxxxxxxxxxxxxxxxxxxxxxxxxxxxxxxxxxxxx N"
0M"
bx L"
b0xxxxxxxxxxxxxxxxxxxxxxxxxxxxxxxxxxxxxxxxxxxxxxxxxxxxxxxxxxxxxxxx J"
b0xxxxxxxxzzxxxxxxxxxxxxxxxxxxxxxxxxxxxxxxxxxxxxxxxxxxxxxxxxxxxxxxxxxxxxxxxxxxxxxxxxxxxxxxxxxxxxxxxxxxxxxxxxxxxxxxxxxxxxxxxxxxxxxxxxxxxxxxxxxxxxxxxxxxxxxxxxxxxxxxx0000x000xxx I"
b0xxxxxxxxzzxxxxxxxxxxxxxxxxxxxxxxxxxxxxxxxxxxxxxxxxxxxxxxxxxxxxxxxxxxxxxxxxxxxxxxxxxxxxxxxxxxxxxxxxxxxxxxxxxxxxxxxxxxxxxxxxxxxxxxxxxxxxxxxxxxxxxxxxxxxxxxxxxxxxxxx0000x000xxx G"
b0xxxxxxxxxxxxxxxxxxxxxxxxxxxxxxxxxxxxxxxxxxxxxxxxxxxxxxxxxxxxxxxxxxxxxxxxxxxxxxxxxxxxxxxxxxxxxxxxxxxxxxxxxxxxxx F"
b0xxxxxxxxxxxxxxxxxxxxxxxxxxxxxxxx0xzxxzxxxxxxxxxxxxxxxxxxxxxxxxxxxxxxxxxxxxxxxxxxxxxxxxxxxxxxxxxxxxxxxxxxxxxxxx D"
0C"
bx B"
b0 A"
bx @"
bx ?"
x>"
x="
bx <"
x;"
x:"
x9"
x8"
bx 7"
bx 6"
bx 5"
bx 4"
bx 3"
b0xxxxxxxxxxxxxxxxxxxxxxxxxxxxxxxx0xzxxzxxxxxxxxxxxxxxxxxxxxxxxxxxxxxxxxxxxxxxxxxxxxxxxxxxxxxxxxxxxxxxxxxxxxxxxx 2"
b0xxxxxxxxxxxxxxxxxxxxxxxxxxxxxxxxxxxxxxxxxxxxxxxxxxxxxxxxxxxxxxxxxxxxxxxxxxxxxxxxxxxxxxxxxxxxxxxxxxxxxxxxxxxxxx 1"
bx 0"
bx /"
bx ."
bx -"
bxz ,"
bx +"
x*"
b0xxxxxxxxzzxxxxxxxxxxxxxxxxxxxxxxxxxxxxxxxxxxxxxxxxxxxxxxxxxxxxxxxxxxxxxxxxxxxxxxxxxxxxxxxxxxxxxxxxxxxxxxxxxxxxxxxxxxxxxxxxxxxxxxxxxxxxxxxxxxxxxxxxxxxxxxxxxxxxxxx0000x000xxx )"
b0xxxxxxxxzzxxxxxxxxxxxxxxxxxxxxxxxxxxxxxxxxxxxxxxxxxxxxxxxxxxxxxxxxxxxxxxxxxxxxxxxxxxxxxxxxxxxxxxxxxxxxxxxxxxxxxxxxxxxxxxxxxxxxxxxxxxxxxxxxxxxxxxxxxxxxxxxxxxxxxxx0000x000xxx ("
bx '"
x&"
bx %"
bx $"
bx #"
0""
x!"
x~
b0xxxxxxxxxxxxxxxxxxxxxxxxxxxxxxxxxxxxxxxxxxxxxxxxxxxxxxxxxxxxxxxxxxxxxxxxxxxxxxxxxxxxxxxxxxxx }
b0xxxxxxxxxxxxxxxxxxxxxxxxxxxxxxxxxxxxxxxxxxxxxxxxxxxxxxxxxxxxxxxxxxxxxxxxxxxxxxxxxxxxxxxxxxxxxxxxxxxxxxxx |
x{
xz
xy
xx
xw
xv
bx u
bx t
bx s
bx r
xq
bx p
b0xxxxxxxxxxxxxxxxxxxx o
b0xxxxxxxxxxxxxxxxxxxx n
bx m
bx l
bx k
bx j
bx i
bx h
bx g
bx f
xe
0d
xc
xb
bx0000x00 a
b0x000 `
bx _
bx ^
bx ]
bzx \
bx [
bx Z
xY
bx X
bx W
bx V
bx U
bx T
bx S
bx R
bx Q
bx P
bx O
bx N
bx M
bx L
bx K
bx J
bx I
bx H
bx G
xF
bx E
bx D
zC
zB
1A
z@
x?
1>
x=
bz <
1;
bx :
bx 9
bx 8
z7
bx 6
bx 5
bx 4
bx 3
bx 2
bx 1
x0
bx /
bx .
bx -
bx ,
bx +
0*
bz )
bz (
b10 '
b0 &
1%
bx $
1#
$end
#5000
b0 R
b0 X"
b0 t
b0 I#
0!"
b0 `
b0 t"
0##
0u"
0<#
1-#
0>"
0e
0&#
0v"
00#
0z"
0%#
0>#
b0 @"
b0 L#
b0 6"
b0 K#
0'#
0?#
0}"
1Y
b0 X
b0 ]"
b0 o"
b0 <"
b0 m"
b0 ]
b0 H#
09"
0"#
0.#
04#
0+#
0/#
05#
0=#
0~"
b0 j
b0 k"
b0 f
0G#
0D#
0B#
0C#
0x
0F#
0E#
0y"
0*#
b0 3"
b0 W"
b0 J#
0$#
0w"
02#
0:#
08#
07#
0(#
0)#
0x"
03#
0;#
09#
06#
01#
0!#
0{"
0|"
0z
0,#
0V#
0W#
1?
0=
b0 l
b0 i"
b0 i
b0 h"
b0 0"
b0 Z#
0S#
b0 /"
b0 Y#
0T#
b0 1
0*"
0;"
1q
0&"
0F
b0 r
b0 s"
b0 ."
b0 p"
b0 -"
b0 q"
b0 K
b0 d"
b0 ]#
b0 I
b0 e"
b0 ^#
b0 O
b0 S
b0 S"
b0 T
b0 R"
b0 G
b0 U"
b0 U
b0 Q"
b0 E
b0 V"
b0 P
b0 T"
b0 n
0b
b0 Z
b0 4"
b0 V
b0 L
b0 f"
b0 X#
b0 ^
b0 o
0c
00
0v
b0 [
b0 +"
b0 8
b0 5"
b0 .
b0 6
b0 W
b0 -
b0 3
b0 :
b0 g
b0xxxxxxxxxxxxxxxxxxxxxxxxxxxxxxxx0000000000000000000000000000000000000 N"
b0xxxxxxxxxxxxxxxxxxxxxxxxxxxxxxxx0000000000000000000000000000000000000 }
b0 M
b0 U#
b0 _
0~
0y
08"
0w
b0 ?"
b0 l"
0="
b0 ,"
b0 \
b0 7"
b0 s
b0 Z"
b0 [#
b0 k
b0 h
b0 Q
b0 Y"
b0 J
b0 Q#
b0 H
b0 R#
b0 N
b0 \#
b0 D"
b0 2"
b0 p
b0 ["
b0 n"
b0 a
0{
0:"
b0zz000000000000000000000000000000000000000000000000000000000000000000000000000000000000000000000000000000000000000000000000000000000000000000000000000000000000000000 G"
b0zz000000000000000000000000000000000000000000000000000000000000000000000000000000000000000000000000000000000000000000000000000000000000000000000000000000000000000000 )"
b0 '"
b0 $"
b0 A#
b10000000000000000000100110111 +
b10000000000000000000100110111 5
b10000000000000000000100110111 D
b0 4
b100 u
b100 `"
b100 a"
b0 |
b0 1"
b0 ("
b0 #"
b100 ^"
b10000000000000000000100110111 J"
b10000000000000000000100110111 %"
b0 /
b0 m
b0 _"
b0 c"
b0 P"
b0 F"
b0 I"
b0 L"
b100000 j"
1*
0%
#25000
0*
1%
#50000
0#
#100000
b10000000000000000000000000000 R
b10000000000000000000000000000 X"
b0 6"
b0 K#
1e
b1 @"
b1 L#
1>"
b10 3"
b10 W"
b10 J#
1*#
0&#
0y"
b0 ]
b0 H#
0B#
0-#
b110111 r
b110111 s"
b1000 -"
b1000 q"
b10000011zz000000000000000000000000000000000000000000000000000000000000000000000000000100000000000000000000000000000000000000000100000000000000000000000000000000000000000000 G"
b10000011zz000000000000000000000000000000000000000000000000000000000000000000000000000100000000000000000000000000000000000000000100000000000000000000000000000000000000000000 )"
b10 O
b100000000 T
b100000000 R"
b100000010 G
b100000010 U"
b10000001 U
b10000001 Q"
b10000000000000000 E
b10000000000000000 V"
b10000000 P
b10000000 T"
bx00000000000000000000 A"
bx00000000000000000000 g"
b10000000000000000000100110111 $"
b10000000000000000000100110111 A#
b0z ,"
b0z00z000000000000000000000000000000000000000000000000000000000000000000000000 D"
b0z00z000000000000000000000000000000000000000000000000000000000000000000000000 2"
bz0 \
b0xxxxxxxxxxxxxxxxxxxx 4"
bx00000000000000000000 V
b10000000000000000000100110111 #"
b0zz000000000000000000000000000000000000000000000000000000000000000000000000000000000000000000000000000000000000000000000000000000000000000000000000000000000000000000 ("
b0xxxxxxxxxxxxxxxxxxxxxxxxxxxxxxxx0000000000000000000000000000000000000 |
b10000000000000000000100110111 L"
b0zz000000000000000000000000000000000000000000000000000000000000000000000000000000000000000000000000000000000000000000000000000000000000000000000000000000000000000000 I"
b0xxxxxxxxxxxxxxxxxxxxxxxxxxxxxxxx0000000000000000000000000000000000000 P"
b1 &
1#
#150000
0#
#200000
b1000000000000000000000000000 <"
b1000000000000000000000000000 m"
b0xxxxxxxxxxxxxxxxxxxxxxxxxxxxxxxx00000z00z0000000000000000000000000000 N"
b0xxxxxxxxxxxxxxxxxxxxxxxxxxxxxxxx00000z00z0000000000000000000000000000 }
b0z00z00000000000000000000000 .
b0z00z00000000000000000000000 6
b0z00z00000000000000000000000 W
1w
1="
b1z ,"
b1000000000000000000000000000 Q
b1000000000000000000000000000 Y"
b1z01z000000000000000000000000000000000000000000000000000000000000000000000001 D"
b1z01z000000000000000000000000000000000000000000000000000000000000000000000001 2"
b1 N
b1 \#
b0z00z000000000000000000000000000000000000000000000000000000000000000000000000 1"
b10000011zz000000000000000000000000000000000000000000000000000000000000000000000000000100000000000000000000000000000000000000000100000000000000000000000000000000000000000000 ("
b0z00z000000000000000000000000000000000000000000000000000000000000000000000000 F"
b10000011zz000000000000000000000000000000000000000000000000000000000000000000000000000100000000000000000000000000000000000000000100000000000000000000000000000000000000000000 I"
b10 &
1#
#250000
0#
#300000
bx00000z00z00000000000 A"
bx00000z00z00000000000 g"
b0xxxxxxxxxxxxxxxxxxxxxxxxxxxxxxxx00001z01z0000000000000000000000000000 N"
b0xxxxxxxxxxxxxxxxxxxxxxxxxxxxxxxx00001z01z0000000000000000000000000000 }
b1z01z00000000000000000000000 .
b1z01z00000000000000000000000 6
b1z01z00000000000000000000000 W
bx00000z00z00000000000 V
b1z01z000000000000000000000000000000000000000000000000000000000000000000000001 1"
b0xxxxxxxxxxxxxxxxxxxxxxxxxxxxxxxx00000z00z0000000000000000000000000000 |
b1z01z000000000000000000000000000000000000000000000000000000000000000000000001 F"
b0xxxxxxxxxxxxxxxxxxxxxxxxxxxxxxxx00000z00z0000000000000000000000000000 P"
b11 &
1#
#350000
0#
#400000
bx00001z01z00000000000 A"
bx00001z01z00000000000 g"
bx00001z01z00000000000 V
b0xxxxxxxxxxxxxxxxxxxxxxxxxxxxxxxx00001z01z0000000000000000000000000000 |
b0xxxxxxxxxxxxxxxxxxxxxxxxxxxxxxxx00001z01z0000000000000000000000000000 P"
b100 &
1#
#450000
0#
#500000
b101 &
1#
#550000
0#
#600000
b110 &
1#
#650000
0#
#700000
b111 &
1#
#750000
0#
#800000
b1000 &
1#
#850000
0#
#900000
b1001 &
1#
#950000
0#
#1000000
b1010 &
1#
#1025000
b111 $
#1050000
0#
#1100000
b1011 &
1#
#1150000
0#
#1200000
b1100 &
1#
#1250000
0#
#1300000
b1101 &
1#
#1350000
0#
#1400000
b1110 &
1#
#1450000
0#
#1500000
b1111 &
1#
#1550000
0#
#1600000
b10000 &
1#
#1650000
0#
#1700000
b10001 &
1#
#1750000
0#
#1800000
b10010 &
1#
#1850000
0#
#1900000
b10011 &
1#
#1950000
0#
#2000000
b10100 &
1#
#2050000
0#
#2100000
b10101 &
1#
#2150000
0#
#2200000
b10110 &
1#
#2250000
0#
#2300000
b10111 &
1#
#2350000
0#
#2400000
b11000 &
1#
#2450000
0#
#2500000
b11001 &
1#
#2550000
0#
#2600000
b11010 &
1#
#2650000
0#
#2700000
b11011 &
1#
#2750000
0#
#2800000
b11100 &
1#
#2850000
0#
#2900000
b11101 &
1#
#2950000
0#
#3000000
b11110 &
1#
#3050000
0#
#3100000
b11111 &
1#
#3150000
0#
#3200000
b100000 &
1#
#3250000
0#
#3300000
b100001 &
1#
#3350000
0#
#3400000
b100010 &
1#
#3450000
0#
#3500000
b100011 &
1#
#3550000
0#
#3600000
b100100 &
1#
#3650000
0#
#3700000
b100101 &
1#
#3750000
0#
#3800000
b100110 &
1#
#3850000
0#
#3900000
b100111 &
1#
#3950000
0#
#4000000
b101000 &
1#
#4050000
0#
#4100000
b101001 &
1#
#4150000
0#
#4200000
b101010 &
1#
#4250000
0#
#4300000
b101011 &
1#
#4350000
0#
#4400000
b101100 &
1#
#4450000
0#
#4500000
b101101 &
1#
#4550000
0#
#4600000
b101110 &
1#
#4650000
0#
#4700000
b101111 &
1#
#4750000
0#
#4800000
b110000 &
1#
#4850000
0#
#4900000
b110001 &
1#
#4950000
0#
#5000000
b110010 &
1#
#5050000
0#
#5100000
b110011 &
1#
#5150000
0#
#5200000
b110100 &
1#
#5250000
0#
#5300000
b110101 &
1#
#5350000
0#
#5400000
b110110 &
1#
#5450000
0#
#5500000
b110111 &
1#
#5550000
0#
#5600000
b111000 &
1#
#5650000
0#
#5700000
b111001 &
1#
#5750000
0#
#5800000
b111010 &
1#
#5850000
0#
#5900000
b111011 &
1#
#5950000
0#
#6000000
b111100 &
1#
#6050000
0#
#6100000
b111101 &
1#
#6150000
0#
#6200000
b111110 &
1#
#6250000
0#
#6300000
b111111 &
1#
#6350000
0#
#6400000
b1000000 &
1#
#6450000
0#
#6500000
b1000001 &
1#
#6550000
0#
#6600000
b1000010 &
1#
#6650000
0#
#6700000
b1000011 &
1#
#6750000
0#
#6800000
b1000100 &
1#
#6850000
0#
#6900000
b1000101 &
1#
#6950000
0#
#7000000
b1000110 &
1#
#7050000
0#
#7100000
b1000111 &
1#
#7150000
0#
#7200000
b1001000 &
1#
#7250000
0#
#7300000
b1001001 &
1#
#7350000
0#
#7400000
b1001010 &
1#
#7450000
0#
#7500000
b1001011 &
1#
#7550000
0#
#7600000
b1001100 &
1#
#7650000
0#
#7700000
b1001101 &
1#
#7750000
0#
#7800000
b1001110 &
1#
#7850000
0#
#7900000
b1001111 &
1#
#7950000
0#
#8000000
b1010000 &
1#
#8050000
0#
#8100000
b1010001 &
1#
#8150000
0#
#8200000
b1010010 &
1#
#8250000
0#
#8300000
b1010011 &
1#
#8350000
0#
#8400000
b1010100 &
1#
#8450000
0#
#8500000
b1010101 &
1#
#8550000
0#
#8600000
b1010110 &
1#
#8650000
0#
#8700000
b1010111 &
1#
#8750000
0#
#8800000
b1011000 &
1#
#8850000
0#
#8900000
b1011001 &
1#
#8950000
0#
#9000000
b1011010 &
1#
#9050000
0#
#9100000
b1011011 &
1#
#9150000
0#
#9200000
b1011100 &
1#
#9250000
0#
#9300000
b1011101 &
1#
#9350000
0#
#9400000
b1011110 &
1#
#9450000
0#
#9500000
b1011111 &
1#
#9550000
0#
#9600000
b1100000 &
1#
#9650000
0#
#9700000
b1100001 &
1#
#9750000
0#
#9800000
b1100010 &
1#
#9850000
0#
#9900000
b1100011 &
1#
#9950000
0#
#10000000
b1100100 &
1#
#10050000
0#
#10100000
b1100101 &
1#
#10150000
0#
#10200000
b1100110 &
1#
#10250000
0#
#10300000
b1100111 &
1#
#10350000
0#
#10400000
b1101000 &
1#
#10450000
0#
#10500000
b1101001 &
1#
#10550000
0#
#10600000
b1101010 &
1#
#10650000
0#
#10700000
b1101011 &
1#
#10750000
0#
#10800000
b1101100 &
1#
#10850000
0#
#10900000
b1101101 &
1#
#10950000
0#
#11000000
b1101110 &
1#
#11050000
0#
#11100000
b1101111 &
1#
#11150000
0#
#11200000
b1110000 &
1#
#11250000
0#
#11300000
b1110001 &
1#
#11350000
0#
#11400000
b1110010 &
1#
#11450000
0#
#11500000
b1110011 &
1#
#11550000
0#
#11600000
b1110100 &
1#
#11650000
0#
#11700000
b1110101 &
1#
#11750000
0#
#11800000
b1110110 &
1#
#11850000
0#
#11900000
b1110111 &
1#
#11950000
0#
#12000000
b1111000 &
1#
#12050000
0#
#12100000
b1111001 &
1#
#12150000
0#
#12200000
b1111010 &
1#
#12250000
0#
#12300000
b1111011 &
1#
#12350000
0#
#12400000
b1111100 &
1#
#12450000
0#
#12500000
b1111101 &
1#
#12550000
0#
#12600000
b1111110 &
1#
#12650000
0#
#12700000
b1111111 &
1#
#12750000
0#
#12800000
b10000000 &
1#
#12850000
0#
#12900000
b10000001 &
1#
#12950000
0#
#13000000
b10000010 &
1#
#13050000
0#
#13100000
b10000011 &
1#
#13150000
0#
#13200000
b10000100 &
1#
#13250000
0#
#13300000
b10000101 &
1#
#13350000
0#
#13400000
b10000110 &
1#
#13450000
0#
#13500000
b10000111 &
1#
#13550000
0#
#13600000
b10001000 &
1#
#13650000
0#
#13700000
b10001001 &
1#
#13750000
0#
